{
  "project_info": {
    "project_number": "171819841120",
    "project_id": "bombgame-8ea2a",
    "storage_bucket": "bombgame-8ea2a.appspot.com"
  },
  "client": [
    {
      "client_info": {
        "mobilesdk_app_id": "1:171819841120:android:65e2114390dfd301253505",
        "android_client_info": {
          "package_name": "com.example.bombgame"
        }
      },
      "oauth_client": [
        {
          "client_id": "171819841120-r8kl68ruit8nu8d6v576k28brrc9o42p.apps.googleusercontent.com",
          "client_type": 3
        }
      ],
      "api_key": [
        {
          "current_key": "AIzaSyB5uVr5I3G9pqPC3ImjifgLaXIv32zcjK8"
        }
      ],
      "services": {
        "appinvite_service": {
          "other_platform_oauth_client": [
            {
              "client_id": "171819841120-r8kl68ruit8nu8d6v576k28brrc9o42p.apps.googleusercontent.com",
              "client_type": 3
            }
          ]
        }
      }
    }
  ],
  "configuration_version": "1"
}